module go-redis-finance

go 1.17

require (
	github.com/go-chi/chi v1.5.4
	github.com/go-redis/redis v6.15.9+incompatible
)

require (
	github.com/onsi/ginkgo v1.16.4 // indirect
	github.com/onsi/gomega v1.16.0 // indirect
)
